{
  "version": "independent",
  "npmClient": "yarn",
  "useWorkspaces": true,
  "packages": [
    "packages/*"
  ],
  "command": {
    "publish": {
       "conventionalCommits": true,
       "yes": true
    }
  }
}
